leave_category_id,category,leave_type,hak_cuti
"1","Cuti Melahirkan","Leave","0"
"2","Cuti Gugur Kandungan","Leave","0"
"3","Cuti Tahunan","Leave","0"
"4","Cuti Bersama Hari Libur Resmi","Leave","0"
"5","Sakit Tanpa Keterangan Dokter","Leave","0"
"6","Mangkir","Leave","0"
"7","Cuti Menikah Karyawan","Unleave","3"
"8","Cuti Pernikahan Anak Sah Karyawan","Unleave","2"
"9","Cuti Khitan Anak Sah Karyawan","Unleave","2"
"10","Cuti Baptis Anak Sah Karyawan","Unleave","2"
"11","Cuti Istri Sah Melahirkan / Gugur Kandungan","Unleave","2"
