designations_id,department_id,designations
1,1,Komisaris
2,1,Direktur
3,2,Made with passion
4,2,Promotion
5,2,Brand
6,2,Online Admin
7,2,Field Trainer
8,2,Nasional Sales Manager
9,2,Marcom Admin
10,2,Admin Sales
11,2,Driver
12,2,Project Manager
13,2,Marketing Communication Manager
14,2,E-commerce & HABA Manager
15,2,Regional sales & Promotion Sec Head
16,2,Creative Support Supervisor
17,2,Content Writer
18,2,Creative Support (Made with passion)
19,2,Area Sales Manager
20,2,Visual Merchandiser
21,2,Trainer
22,2,Visual Assets
23,2,Marketing Communication Executive
24,2,Sales & Data Admin
25,3,Helper
26,3,Inv Warehouse  & Distribution Sec Head
27,3,Warehouse Supervisor
28,3,Driver(B1)
29,4,AP Staf
30,4,Accounting Supervisor
31,4,Treasury Sec Head
32,4,AR Staf
33,4,Admin Accounting
34,4,Accounting
35,4,Finance & Accounting  Dept Head
36,4,Tax Supervisor
37,4,Finance & Accounting  Sec Head
38,5,HR & GA Dept Head
39,5,HRGA Supervisor
40,5,Admin HRGA
41,6,Purchasing Supervisor
42,6,Procurement Officer
43,6,Procurement Sec Head
44,7,IT System Analys
45,7,IT Dept Head
46,7,IT Infrastruktur
47,7,IT Networking & Infrastructure
48,5,Receptionist
49,5,GA Officer
50,5,HR Generalist
51,5,Receptionist & General Service
